module gitlab.com/bngnha/go-plugins/registry/zookeeper/v2

go 1.13

require (
	github.com/micro/go-micro/v2 v2.5.0
	github.com/mitchellh/hashstructure v1.0.0
	github.com/samuel/go-zookeeper v0.0.0-20190923202752-2cc03de413da
)
