module gitlab.com/bngnha/go-plugins/wrapper/monitoring/prometheus/v2

go 1.13

require (
	github.com/micro/go-micro/v2 v2.5.0
	github.com/prometheus/client_golang v1.5.1
	github.com/prometheus/client_model v0.2.0
	github.com/stretchr/testify v1.4.0
)
