module gitlab.com/bngnha/go-plugins/registry/gossip/v2

go 1.13

require (
	github.com/golang/protobuf v1.3.5
	github.com/google/uuid v1.1.1
	github.com/hashicorp/memberlist v0.1.5
	github.com/micro/go-micro/v2 v2.5.0
	github.com/mitchellh/hashstructure v1.0.0
)
