module gitlab.com/bngnha/go-plugins/broker/segmentio/v2

go 1.13

require (
	github.com/google/uuid v1.1.1
	github.com/micro/go-micro/v2 v2.5.0
	github.com/micro/go-plugins/broker/kafka/v2 v2.3.0
	github.com/micro/go-plugins/codec/segmentio/v2 v2.3.0
	github.com/segmentio/kafka-go v0.3.5
)

replace github.com/micro/go-plugins/codec/segmentio/v2 => ../../codec/segmentio
