module gitlab.com/bngnha/go-plugins/transport/utp/v2

go 1.13

require (
	github.com/anacrolix/envpprof v1.1.0 // indirect
	github.com/anacrolix/sync v0.2.0 // indirect
	github.com/anacrolix/utp v0.0.0-20180219060659-9e0e1d1d0572
	github.com/bradfitz/iter v0.0.0-20191230175014-e8f45d346db8 // indirect
	github.com/micro/go-micro/v2 v2.5.0
)
