module gitlab.com/bngnha/go-plugins/broker/grpc/v2

go 1.13

require (
	github.com/golang/protobuf v1.3.5
	github.com/google/uuid v1.1.1
	github.com/micro/go-micro/v2 v2.5.0
	golang.org/x/net v0.0.0-20200222125558-5a598a2470a0
	google.golang.org/grpc v1.26.0
)
