module gitlab.com/bngnha/go-plugins/wrapper/trace/datadog/v2

go 1.13

require (
	github.com/DataDog/datadog-go v3.3.1+incompatible // indirect
	github.com/micro/go-micro/v2 v2.5.0
	github.com/philhofer/fwd v1.0.0 // indirect
	github.com/stretchr/testify v1.4.0
	github.com/tinylib/msgp v1.1.1 // indirect
	google.golang.org/grpc v1.26.0
	gopkg.in/DataDog/dd-trace-go.v1 v1.20.1
)
