module gitlab.com/bngnha/go-plugins/config/encoder/cue/v2

go 1.13

require (
	cuelang.org/go v0.0.15
	github.com/ghodss/yaml v1.0.0
	github.com/micro/go-micro/v2 v2.5.0
	github.com/stretchr/testify v1.4.0
)
