module gitlab.com/bngnha/go-plugins/wrapper/trace/opentracing/v2

go 1.13

require (
	github.com/micro/go-micro/v2 v2.5.0
	github.com/opentracing/opentracing-go v1.1.0
	github.com/stretchr/testify v1.4.0
)
