module gitlab.com/bngnha/go-plugins/wrapper/trace/opencensus/v2

go 1.13

require (
	github.com/micro/go-micro/v2 v2.5.0
	go.opencensus.io v0.22.2
	google.golang.org/genproto v0.0.0-20200115191322-ca5a22157cba
)
