module gitlab.com/bngnha/go-plugins/transport/rabbitmq/v2

go 1.13

require (
	github.com/google/uuid v1.1.1
	github.com/micro/go-micro/v2 v2.5.0
	github.com/streadway/amqp v0.0.0-20200108173154-1c71cc93ed71
)
