module gitlab.com/bngnha/go-plugins/config/source/runtimevar/v2

go 1.13

require (
	github.com/micro/go-micro/v2 v2.5.0
	gocloud.dev v0.17.0
	golang.org/x/oauth2 v0.0.0-20191202225959-858c2ad4c8b6 // indirect
)

replace github.com/Azure/go-autorest/autorest => github.com/azure/go-autorest/autorest v0.3.0
