module gitlab.com/bngnha/go-plugins/broker/gocloud/v2

go 1.13

require (
	github.com/micro/go-micro/v2 v2.5.0
	github.com/streadway/amqp v0.0.0-20200108173154-1c71cc93ed71
	gocloud.dev v0.17.0
	gocloud.dev/pubsub/rabbitpubsub v0.17.0
	golang.org/x/oauth2 v0.0.0-20191202225959-858c2ad4c8b6 // indirect
)
