module gitlab.com/bngnha/go-plugins/codec/json-iterator/v2

go 1.13

require (
	github.com/golang/protobuf v1.3.5
	github.com/json-iterator/go v1.1.9
	github.com/micro/go-micro/v2 v2.5.0
	github.com/oxtoacart/bpool v0.0.0-20190530202638-03653db5a59c
)
