module gitlab.com/bngnha/go-plugins/micro/router/v2

go 1.13

require (
	github.com/micro/cli/v2 v2.1.2
	github.com/micro/go-micro/v2 v2.5.0
	github.com/micro/micro/v2 v2.5.0
	github.com/sirupsen/logrus v1.4.2
)
