module gitlab.com/bngnha/go-plugins/config/source/configmap/v2

go 1.13

require (
	github.com/googleapis/gnostic v0.4.0 // indirect
	github.com/kr/pretty v0.2.0 // indirect
	github.com/micro/go-micro/v2 v2.5.0
	github.com/spf13/pflag v1.0.5 // indirect
	golang.org/x/oauth2 v0.0.0-20191202225959-858c2ad4c8b6 // indirect
	gopkg.in/check.v1 v1.0.0-20190902080502-41f04d3bba15 // indirect
	gopkg.in/inf.v0 v0.9.1 // indirect
	k8s.io/api v0.0.0-00010101000000-000000000000
	k8s.io/apimachinery v0.0.0-00010101000000-000000000000
	k8s.io/client-go v0.0.0-00010101000000-000000000000
	k8s.io/utils v0.0.0-20200109141947-94aeca20bf09 // indirect
)

replace (
	k8s.io/api => k8s.io/api v0.0.0-20190708174958-539a33f6e817
	k8s.io/apimachinery => k8s.io/apimachinery v0.0.0-20190404173353-6a84e37a896d
	k8s.io/apiserver => k8s.io/apiserver v0.0.0-20190708180123-608cd7da68f7
	k8s.io/client-go => k8s.io/client-go v11.0.0+incompatible
	k8s.io/component-base => k8s.io/component-base v0.0.0-20190708175518-244289f83105
)
