module gitlab.com/bngnha/go-plugins/broker/googlepubsub/v2

go 1.13

require (
	cloud.google.com/go/pubsub v1.1.0
	github.com/google/uuid v1.1.1
	github.com/micro/go-micro/v2 v2.5.0
	golang.org/x/oauth2 v0.0.0-20191202225959-858c2ad4c8b6 // indirect
	google.golang.org/api v0.15.0
	google.golang.org/grpc v1.26.0
)
