module gitlab.com/bngnha/go-plugins/micro/auth/v2

go 1.13

require (
	github.com/abbot/go-http-auth v0.4.1-0.20181019201920-860ed7f246ff
	github.com/micro/cli/v2 v2.1.2
	github.com/micro/go-micro/v2 v2.5.0
	github.com/micro/micro/v2 v2.5.0
	gopkg.in/ldap.v3 v3.1.0
)
