module gitlab.com/bngnha/go-plugins/broker/stan/v2

go 1.13

require (
	github.com/google/uuid v1.1.1
	github.com/micro/go-micro/v2 v2.5.0
	github.com/nats-io/nats-streaming-server v0.16.2 // indirect
	github.com/nats-io/stan.go v0.6.0
)
